%YAML 1.1
%TAG !u! tag:unity3d.com,2011:
--- !u!1045 &1
EditorBuildSettings:
  m_ObjectHideFlags: 0
  serializedVersion: 2
  m_Scenes:
  - enabled: 0
    path: Assets/Scenes/MainMenuOLD.unity
    guid: 0f0dcf72eae683541bb254ef9961d7c5
  - enabled: 1
    path: Assets/Scenes/MainMenuScene.unity
    guid: 2eda5328b59307d4ab359d25c9e66bde
  - enabled: 1
    path: Assets/Scenes/HouseTest.unity
    guid: cbb35fc2c398be843a911a2de025d5fe
  - enabled: 1
    path: Assets/Scenes/ReadingScene.unity
    guid: 8e989ed7446564942aa9b268e1d7e24a
  - enabled: 1
    path: Assets/Scenes/Second Night.unity
    guid: 91297612438201e4bb2ecd2acf5c92d2
  - enabled: 1
    path: Assets/Scenes/Third Night.unity
    guid: 4ddcbc8117e847941bdb0c416ee4d381
  - enabled: 1
    path: Assets/Scenes/Fourth Night.unity
    guid: 609afa0b2adb85246aa9e339ceb3327b
  - enabled: 1
    path: Assets/Scenes/Last Night.unity
    guid: 868d7d687432d7f40ac011fad09200e8
  - enabled: 1
    path: Assets/Scenes/CreditsScene.unity
    guid: da32a90ea6b9bd345ab45fff8d61c8b6
  - enabled: 0
    path: 
    guid: 00000000000000000000000000000000
  - enabled: 0
    path: 
    guid: 00000000000000000000000000000000
  - enabled: 0
    path: 
    guid: 00000000000000000000000000000000
  - enabled: 0
    path: 
    guid: 00000000000000000000000000000000
  - enabled: 0
    path: 
    guid: 00000000000000000000000000000000
  - enabled: 0
    path: 
    guid: 00000000000000000000000000000000
  - enabled: 0
    path: 
    guid: 00000000000000000000000000000000
  - enabled: 1
    path: Assets/Scenes/Credits.unity
    guid: da26a1746e9688c4696297dffdb269de
  - enabled: 0
    path: Assets/Scenes/PaintingRef.unity
    guid: 10294a36bd5891c4ca23cfe5cabf57af
  m_configObjects: {}
